…
    ##   mean(air_time, na.rm = TRUE)
    ## 1                     144.3305

## R-Class Module 5 Practice Problem 4

#### 1. Group the flights by route: origin+dest

``` r
flights %>%
        group_by(origin, dest)
```

    ## # A tibble: 336,776 x 20
    ## # Groups:   origin, dest [224]
    ##        X  year month   day dep_time sched_dep_…¹ dep_d…² arr_t…³ sched…⁴ arr_d…⁵
    ##    <int> <int> <int> <int>    <int>        <int>   <int>   <int>   <int>   <int>
    ##  1     1  2013     1     1      517          515       2     830     819      11
    ##  2     2  2013     1     1      533          529       4     850     830      20
    ##  3     3  2013     1     1      542          540       2     923     850      33
    ##  4     4  2013     1     1      544          545      -1    1004    1022     -18
    ##  5     5  2013     1     1      554          600      -6     812     837     -25
    ##  6     6  2013     1     1      554          558      -4     740     728      12
    ##  7     7  2013     1     1      555          600      -5     913     854      19
    ##  8     8  2013     1     1      557          600      -3     709     723     -14
    ##  9     9  2013     1     1      557          600      -3     838     846      -8
    ## 10    10  2013     1     1      558          600      -2     753     745       8
    ## # … with 336,766 more rows, 10 more variables: carrier <chr>, flight <int>,
    ## #   tailnum <chr>, origin <chr>, dest <chr>, air_time <int>, distance <int>,
    ## #   hour <int>, minute <int>, time_hour <chr>, and abbreviated variable names
    ## #   ¹​sched_dep_time, ²​dep_delay, ³​arr_time, ⁴​sched_arr_time, ⁵​arr_delay

#### 2. Calculate the total number of flights, average dep_delay, average arr_delay for each route

``` r
flights %>%
        group_by(origin, dest) %>%
        summarise(flights = n(),
                  avg_dep_delay = mean(dep_delay, na.rm = TRUE),
                  avg_arr_delay = mean(arr_delay, na.rm = TRUE))
```

    ## `summarise()` has grouped output by 'origin'. You can override using the
    ## `.groups` argument.

    ## # A tibble: 224 x 5
    ## # Groups:   origin [3]
    ##    origin dest  flights avg_dep_delay avg_arr_delay
    ##    <chr>  <chr>   <int>         <dbl>         <dbl>
    ##  1 EWR    ALB       439         23.6         14.4  
    ##  2 EWR    ANC         8         12.9         -2.5  
    ##  3 EWR    ATL      5022         15.5         13.2  
    ##  4 EWR    AUS       968         11.5         -0.474
    ##  5 EWR    AVL       265          8.62         8.80 
    ##  6 EWR    BDL       443         17.7          7.05 
    ##  7 EWR    BNA      2336         17.7         12.7  
    ##  8 EWR    BOS      5327         12.5          4.78 
    ##  9 EWR    BQN       297         23.9         10.9  
    ## 10 EWR    BTV       931         17.8         12.2  
    ## # … with 214 more rows
#### 3. Order the return by descending avearge dep_delay time

``` r
flights %>%
        group_by(origin, dest) %>%
        summarise(flights = n(),
                  avg_dep_delay = mean(dep_delay, na.rm = TRUE),
                  avg_arr_delay = mean(arr_delay, na.rm = TRUE)) %>%
        arrange(desc(avg_dep_delay))
```

    ## `summarise()` has grouped output by 'origin'. You can override using the
    ## `.groups` argument.

    ## # A tibble: 224 x 5
    ## # Groups:   origin [3]
    ##    origin dest  flights avg_dep_delay avg_arr_delay
    ##    <chr>  <chr>   <int>         <dbl>         <dbl>
    ##  1 EWR    TYS       323          41.8          41.2
    ##  2 EWR    CAE       104          36.3          44.6
    ##  3 EWR    TUL       315          34.9          33.7
    ##  4 LGA    SBN         6          31.3          14.5
    ##  5 EWR    OKC       346          30.6          30.6
    ##  6 LGA    BHM       296          29.8          17.0
    ##  7 LGA    CAE        12          29.5          19.7
    ##  8 EWR    DSM       411          29.3          23.5
    ##  9 EWR    JAC        23          28.7          29.9
    ## 10 EWR    ROC       513          27.9          20.7
    ## # … with 214 more rows

#### 4. Group the flights by carrier

``` r
flights %>%
        group_by(carrier)
```

    ## # A tibble: 336,776 x 20
    ## # Groups:   carrier [16]
    ##        X  year month   day dep_time sched_dep_…¹ dep_d…² arr_t…³ sched…⁴ arr_d…⁵
    ##    <int> <int> <int> <int>    <int>        <int>   <int>   <int>   <int>   <int>
    ##  1     1  2013     1     1      517          515       2     830     819      11
    ##  2     2  2013     1     1      533          529       4     850     830      20
    ##  3     3  2013     1     1      542          540       2     923     850      33
    ##  4     4  2013     1     1      544          545      -1    1004    1022     -18
    ##  5     5  2013     1     1      554          600      -6     812     837     -25
    ##  6     6  2013     1     1      554          558      -4     740     728      12
    ##  7     7  2013     1     1      555          600      -5     913     854      19
    ##  8     8  2013     1     1      557          600      -3     709     723     -14
    ##  9     9  2013     1     1      557          600      -3     838     846      -8
    ## 10    10  2013     1     1      558          600      -2     753     745       8
    ## # … with 336,766 more rows, 10 more variables: carrier <chr>, flight <int>,
    ## #   tailnum <chr>, origin <chr>, dest <chr>, air_time <int>, distance <int>,
    ## #   hour <int>, minute <int>, time_hour <chr>, and abbreviated variable names
    ## #   ¹​sched_dep_time, ²​dep_delay, ³​arr_time, ⁴​sched_arr_time, ⁵​arr_delay
…
